C3 77 01
3A A0 44
FE 00
28 0A
3A B0 44
FE 01
28 33
C3 00 00
3E 01
32 60 44
32 A0 44
3E 50
32 F0 44
3E 3C
32 E0 44
3E 28
32 D0 44
32 C0 44
3E 0A
32 70 44
3E 00
32 50 44
32 90 44
32 80 44
32 B0 44
C3 00 00
3A 70 44
FE 00
20 10
3E 00
32 B0 44
3E 00
32 A0 44
C3 00 00
C3 5B 00
3A 90 44
FE 09
20 0D
3E 00
32 B0 44
3E 00
32 A0 44
C3 00 00
3A 80 44
FE 09
20 10
3E 00
32 B0 44
3E 00
32 A0 44
C3 00 00
C3 86 00
3A F0 44
FE 1A
20 1F
3A D0 44
D6 01
47
3A E0 44
90
38 13
3A E0 44
47
3A D0 44
C6 19
C6 01
90
38 05
3E 01
32 60 44
3A F0 44
C6 02
FE 85
20 22
3A C0 44
D6 01
47
3A E0 44
90
38 16
3A E0 44
47
3A C0 44
C6 19
C6 01
90
38 08
3E 00
32 60 44
C3 D7 00
3A F0 44
47
3E 01
90
38 1A
3A 80 44
C6 01
32 80 44
3A 70 44
D6 01
32 70 44
3E 50
32 F0 44
3E 3C
32 E0 44
3A F0 44
D6 9E
38 1A
3A 90 44
C6 01
32 90 44
3A 70 44
D6 01
32 70 44
3E 50
32 F0 44
3E 3C
32 E0 44
3A E0 44
D6 78
38 05
3E 00
32 50 44
3A E0 44
47
3E 02
90
38 08
3E 01
32 50 44
C3 38 01
3A 60 44
FE 01
20 08
3A F0 44
C6 01
32 F0 44
3A 60 44
FE 00
20 08
3A F0 44
D6 01
32 F0 44
3A 50 44
FE 01
20 08
3A E0 44
C6 01
32 E0 44
3A 50 44
FE 00
20 08
3A E0 44
D6 01
32 E0 44
C3 00 00
3A 40 44
FE 01
CA 94 01
FE 02
CA 9E 01
3A 30 44
FE 01
CA A8 01
FE 02
CA B2 01
C2 03 00
3A D0 44
3C
32 D0 44
C3 77 01
3A D0 44
3D
32 D0 44
C3 77 01
3A C0 44
3C
32 C0 44
C3 77 01
3A C0 44
3D
32 C0 44
C3 77 01